RGB_to_YUV_BCA/rgb_to_yuv.vcd
$date
     Apr 06, 2016       21:36:33
$end

$version
 SystemC 2.3.1-Accellera --- Feb 21 2016 11:32:35
$end

$timescale
     1 ps
$end

$scope module SystemC $end
$var wire    1  aaaaa  clk       $end
$var wire    1  aaaab  rst       $end
$var wire    8  aaaac  offset_r [7:0]  $end
$var wire    8  aaaad  offset_g [7:0]  $end
$var wire    8  aaaae  offset_b [7:0]  $end
$var wire    1  aaaaf  rgb_ready       $end
$var wire    1  aaaag  rgb_valid       $end
$var wire    8  aaaah  rgb_r [7:0]  $end
$var wire    8  aaaai  rgb_g [7:0]  $end
$var wire    8  aaaaj  rgb_b [7:0]  $end
$var wire    1  aaaak  yuv_ready       $end
$var wire    1  aaaal  yuv_valid       $end
$var wire    8  aaaam  yuv_y [7:0]  $end
$var wire    8  aaaan  yuv_u [7:0]  $end
$var wire    8  aaaao  yuv_v [7:0]  $end
$upscope $end
$enddefinitions  $end

$comment
All initial values are dumped below at time 0 sec = 0 timescale units.
$end

$dumpvars
0aaaaa
0aaaab
b0 aaaac
b0 aaaad
b0 aaaae
0aaaaf
0aaaag
b0 aaaah
b0 aaaai
b0 aaaaj
0aaaak
0aaaal
b0 aaaam
b0 aaaan
b0 aaaao
$end

#5000
1aaaaa
1aaaak

#10000
0aaaaa

#15000
1aaaaa

#20000
0aaaaa

#25000
1aaaaa
1aaaab
b10110000 aaaac
b10000 aaaae
1aaaaf

#30000
0aaaaa

#35000
1aaaaa

#40000
0aaaaa

#45000
1aaaaa
1aaaag
b10110000 aaaah
b10000 aaaaj

#50000
0aaaaa

#55000
1aaaaa
0aaaaf
0aaaag

#60000
0aaaaa

#65000
1aaaaa
1aaaal
b110110 aaaam
b1101010 aaaan
b11010110 aaaao

#70000
0aaaaa

#75000
1aaaaa
1aaaaf
0aaaal

#80000
0aaaaa

#85000
1aaaaa
1aaaag

#90000
0aaaaa

#95000
1aaaaa
0aaaaf
0aaaag

#100000
0aaaaa

#105000
1aaaaa
1aaaal

#110000
0aaaaa

#115000
1aaaaa
1aaaaf
0aaaal

#120000
0aaaaa

#125000
1aaaaa
1aaaag

#130000
0aaaaa

#135000
1aaaaa
0aaaaf
0aaaag

#140000
0aaaaa

#145000
1aaaaa
1aaaal

#150000
0aaaaa

#155000
1aaaaa
1aaaaf
0aaaal

#160000
0aaaaa

#165000
1aaaaa
1aaaag

#170000
0aaaaa

#175000
1aaaaa
0aaaaf
0aaaag

#180000
0aaaaa

#185000
1aaaaa
1aaaal

#190000
0aaaaa

#195000
1aaaaa
1aaaaf
0aaaal

#200000
0aaaaa

#205000
1aaaaa
1aaaag

#210000
0aaaaa

#215000
1aaaaa
0aaaaf
0aaaag

#220000
0aaaaa

#225000
1aaaaa
1aaaal

#230000
0aaaaa

#235000
1aaaaa
1aaaaf
0aaaal

#240000
0aaaaa

#245000
1aaaaa
1aaaag

#250000
0aaaaa

#255000
1aaaaa
0aaaaf
0aaaag

#260000
0aaaaa

#265000
1aaaaa
1aaaal

#270000
0aaaaa

#275000
1aaaaa
1aaaaf
0aaaal

#280000
0aaaaa

#285000
1aaaaa
1aaaag

#290000
0aaaaa

#295000
1aaaaa
0aaaaf
0aaaag

#300000
0aaaaa

#305000
1aaaaa
1aaaal

#310000
0aaaaa

#315000
1aaaaa
1aaaaf
0aaaal

#320000
0aaaaa

#325000
1aaaaa
1aaaag

#330000
0aaaaa

#335000
1aaaaa
0aaaaf
0aaaag

#340000
0aaaaa

#345000
1aaaaa
1aaaal

#350000
0aaaaa

#355000
1aaaaa
1aaaaf
0aaaal

#360000
0aaaaa

#365000
1aaaaa
1aaaag

#370000
0aaaaa

#375000
1aaaaa
0aaaaf
0aaaag

#380000
0aaaaa

#385000
1aaaaa
1aaaal

#390000
0aaaaa

#395000
1aaaaa
1aaaaf
0aaaal

#400000
0aaaaa

#405000
1aaaaa
1aaaag

#410000
0aaaaa

#415000
1aaaaa
0aaaaf
0aaaag

#420000
0aaaaa

#425000
1aaaaa
1aaaal

#430000
0aaaaa

#435000
1aaaaa
1aaaaf
0aaaal

#440000
0aaaaa

#445000
1aaaaa
1aaaag

#450000
0aaaaa

#455000
1aaaaa
0aaaaf
0aaaag

#460000
0aaaaa

#465000
1aaaaa
1aaaal

#470000
0aaaaa

#475000
1aaaaa
1aaaaf
0aaaal

#480000
0aaaaa

#485000
1aaaaa
1aaaag

#490000
0aaaaa

#495000
1aaaaa
0aaaaf
0aaaag

#500000
0aaaaa

#505000
1aaaaa
1aaaal

#510000
0aaaaa

#515000
1aaaaa
1aaaaf
0aaaal

#520000
0aaaaa

#525000
1aaaaa
1aaaag

#530000
0aaaaa

#535000
1aaaaa
0aaaaf
0aaaag

#540000
0aaaaa

#545000
1aaaaa
1aaaal

#550000
0aaaaa

#555000
1aaaaa
1aaaaf
0aaaal

#560000
0aaaaa

#565000
1aaaaa
1aaaag

#570000
0aaaaa

#575000
1aaaaa
0aaaaf
0aaaag

#580000
0aaaaa

#585000
1aaaaa
1aaaal

#590000
0aaaaa

#595000
1aaaaa
1aaaaf
0aaaal

#600000
0aaaaa

#605000
1aaaaa
1aaaag

#610000
0aaaaa

#615000
1aaaaa
0aaaaf
0aaaag

#620000
0aaaaa

#625000
1aaaaa
1aaaal

#630000
0aaaaa

#635000
1aaaaa
1aaaaf
0aaaal

#640000
0aaaaa

#645000
1aaaaa
1aaaag

#650000
0aaaaa

#655000
1aaaaa
0aaaaf
0aaaag

#660000
0aaaaa

#665000
1aaaaa
1aaaal

#670000
0aaaaa

#675000
1aaaaa
1aaaaf
0aaaal

#680000
0aaaaa

#685000
1aaaaa
1aaaag

#690000
0aaaaa

#695000
1aaaaa
0aaaaf
0aaaag

#700000
0aaaaa

#705000
1aaaaa
1aaaal

#710000
0aaaaa

#715000
1aaaaa
1aaaaf
0aaaal

#720000
0aaaaa

#725000
1aaaaa
1aaaag

#730000
0aaaaa

#735000
1aaaaa
0aaaaf
0aaaag

#740000
0aaaaa

#745000
1aaaaa
1aaaal

#750000
0aaaaa

#755000
1aaaaa
1aaaaf
0aaaal

#760000
0aaaaa

#765000
1aaaaa
1aaaag

#770000
0aaaaa

#775000
1aaaaa
0aaaaf
0aaaag

#780000
0aaaaa

#785000
1aaaaa
1aaaal

#790000
0aaaaa

#795000
1aaaaa
1aaaaf
0aaaal

#800000
0aaaaa

#805000
1aaaaa
1aaaag

#810000
0aaaaa

#815000
1aaaaa
0aaaaf
0aaaag

#820000
0aaaaa

#825000
1aaaaa
1aaaal

#830000
0aaaaa

#835000
1aaaaa
1aaaaf
0aaaak
0aaaal

